{
    "nodes": [
        {
            "xPos": 0.5,
            "yPos": 0.5,
            "cardId": "1",
            "zoom": 1.6
        },
        {
            "xPos": 2,
            "yPos": 0.5,
            "cardId": "5"
        },
        {
            "xPos": 3,
            "yPos": 0.5,
            "cardId": "7"
        },
        {
            "xPos": 4,
            "yPos": 0.5,
            "cardId": "13"
        },
        {
            "xPos": 6,
            "yPos": 0,
            "cardId": "18"
        },
        {
            "xPos": 5,
            "yPos": 0.5,
            "cardId": "21"
        },
        {
            "xPos": 6,
            "yPos": 1,
            "cardId": "22"
        }
    ],
    "edges": [
        {
            "from": "1",
            "to": "5",
            "status": "temporary"
        },
        {
            "from": "7",
            "to": "13",
            "status": "temporary"
        },
        {
            "from": "13",
            "to": "21",
            "status": "temporary"
        },
        {
            "from": "21",
            "to": "18",
            "status": "temporary"
        },
        {
            "from": "21",
            "to": "22",
            "status": "temporary"
        },
        {
            "from": "18",
            "to": "22",
            "status": "invalid"
        }
    ],
    "background": [],
    "version": "1.7.1",
    "lot": "1",
    "variants": [
        "v8.4",
        "v9.0",
        "v7.5"
    ],
    "title": {
        "fr-FR": "Lot 1",
        "es-ES": "Lote 1",
        "it-IT": "Set 1",
        "nb-NO": "Sett 1"
    }
}